module tracker

go 1.13

require (
	github.com/gobuffalo/buffalo v0.15.2
	github.com/gobuffalo/buffalo-pop v1.23.1
	github.com/gobuffalo/envy v1.8.1
	github.com/gobuffalo/logger v1.0.3
	github.com/gobuffalo/mw-contenttype v0.0.0-20190129203934-2554e742333b
	github.com/gobuffalo/mw-forcessl v0.0.0-20180802152810-73921ae7a130
	github.com/gobuffalo/mw-paramlogger v0.0.0-20190129202837-395da1998525
	github.com/gobuffalo/packr/v2 v2.7.1
	github.com/gobuffalo/pop v4.12.2+incompatible
	github.com/gobuffalo/suite v2.8.2+incompatible
	github.com/gobuffalo/validate v2.0.3+incompatible
	github.com/gobuffalo/x v0.0.0-20190224155809-6bb134105960
	github.com/gofrs/uuid v3.2.0+incompatible
	github.com/markbates/grift v1.5.0
	github.com/rs/cors v1.7.0
	github.com/unrolled/secure v0.0.0-20190103195806-76e6d4e9b90c
)
